{
  "type": "service_account",
  "project_id": "solid-ego-310906",
  "private_key_id": "6d54a14430a6e17db821baf226c51e76bf2ea3bb",
  "private_key": "-----BEGIN PRIVATE KEY-----\nMIIEvAIBADANBgkqhkiG9w0BAQEFAASCBKYwggSiAgEAAoIBAQC4u5xiVoTINWSo\nMtGmJfUtevDQeAcYfs1vuuQs5oWJmpxOqyF+9i85lpNB+IZ8XfnkJ5V8EtxaIstK\naC69CTd+/tBwBKQg+T2EWVEXSoinVuL4GzD3+eTHg0r8S7y7RUoma2tUkg6MZsxu\nK2BOdsVRs44n3Zj61Bkpcj6OqPP8RhZQXKCKMQa5WivpysBHYLVrPs2jKyFjFUAq\nKP5mbe8n/UJ+1cZosTzc0Xy0QW+QMZfHxTrNofvbQVsBSWv4SVzGi9yZSUWAFN3v\niq+5FvoujfaH022uMfeOlt9YzVK0LxRNiW/tqnu83rpiRe6Rip6qre5GoHTUMD32\nit2Gu5a7AgMBAAECggEAJK7ssQJpP7CKmnPs+cdT1oIxS9Rp5E1Z0jQUl233Wonf\nPCfzcNjGK/NgrpsBabTnqIzLvGWqaCO8prvlfBhWctt63KOvS/TyaFOsLKnaVRCF\n5arQoI15Br1lqJAJnE54GQT/vT17shm/wqjOaQZgzIaRVg1FEZoInRhYn8+hE5ko\nduwIizVPPdMDE/RQnu4H5oL7+s62EBJozYEmdj7rXttTJfZrcfDaLtAPt6o/nBdr\nAhPTa/3k/cwcgP4HMU/sb6AuZ4RGwSxpjyuHMFQ5+55xkE+ZhRFTIbrkDP5UziBW\n6yQK4lFgCUM07nXmH3Ou3KauJ8XU63xZWXVqDL3QYQKBgQDykZOADrrb+/jCLi0n\npox9QD6G01B/vmdHjA6h6+NyyP0yTtyzszP/Bf0osh3lgjPbq64wb8+3m9ZHqtZV\nuE80t6nt8b7jNPNNVPVN2oenfmAc1b7GA+gAuAIq9ArEf9E5WO2D3TV/qbjHoykA\nzGufG2YNUUQYYyT1uytsZBUhYwKBgQDC9jWGeOhAKLOApoAyPDfRURElD3T0NQ5r\n0DnV8KiXFsETgZPHSGMnvETCA8Clqo2WeBhZQFP/e8lzoDSvvKuOPSMLBrIxZuI/\nr1/KhcahzvnG/kODz6/RPuBxW09xrCQotLzZ4Y5QaXriYv8YjDxrjC6Gxu/rlQRr\nkKbbl6ggyQKBgEhjlWcz/iPEUHpymVsp4udGEuLdkTpuMhgx/fPol5obzSQEUOz3\n396NhP1uGmnxr1QxKeyekZiz0wDURN6UAF81KGswJ81acfl0DzjKrI0Zs8knKKWj\naMs+Hrd+2O/HTUMV/NvLWjndBp3dXVE1sDBtVslGpVG51L/YuZ7BR2UNAoGAanXd\n1pdxY4+WLZs+B7CAXmmhLhaZq7zJKjBjVKL8vLxtJESuuLSbiJgzB6ra6NwQQulD\nioEpHSqwX9ZMzuX83EggOaYnafifdV1DtqiERdlq5bH0lia0AFQQZXYSFKWGfT/s\nnCGh/+EJfFPIrtPtLmE3CtvZKVCPQFmV8/WFlpkCgYB5vZAqMHtRiWPynLzspFge\n+pj7j2UXsAbu1rMKPpGZLzdggU9yOXA4C/QLb4qreGiStLp5yIw7Vmnu2ghxZzWS\nhMi+mVx14mNGSeD6vPR7uiuSr/+x9iBgY0cAmpvQYAlGlE3hEnj1OA7H8kX6FXxq\nJhd7CvtHlX1dzibsyBQoNQ==\n-----END PRIVATE KEY-----\n",
  "client_email": "logdata@solid-ego-310906.iam.gserviceaccount.com",
  "client_id": "108769502297425592409",
  "auth_uri": "https://accounts.google.com/o/oauth2/auth",
  "token_uri": "https://oauth2.googleapis.com/token",
  "auth_provider_x509_cert_url": "https://www.googleapis.com/oauth2/v1/certs",
  "client_x509_cert_url": "https://www.googleapis.com/robot/v1/metadata/x509/logdata%40solid-ego-310906.iam.gserviceaccount.com"
}
